[gd_scene load_steps=2 format=2]

[ext_resource path="res://game/systems/nothing_system.gd" type="Script" id=1]

[node name="NothingSystem" type="Node"]
script = ExtResource( 1 )
COMPONENTS = "nothing"
