[gd_scene load_steps=2 format=2]

[ext_resource path="res://game/systems/pattern_system.gd" type="Script" id=1]

[node name="PatternSystem" type="Node"]
script = ExtResource( 1 )
COMPONENTS = "pattern"
